^E:\C++\CONSOLE\TEKNIKLEKTION1\TEKNIKLEKTION1\SORT.CPP
/c /Zi /nologo /W3 /WX- /diagnostics:classic /sdl /O2 /Oi /GL /D _MBCS /Gm- /EHsc /MD /GS /Gy /fp:precise /Zc:wchar_t /Zc:forScope /Zc:inline /Fo"X64\RELEASE\\" /Fd"X64\RELEASE\VC141.PDB" /Gd /TP E:\C++\CONSOLE\TEKNIKLEKTION1\TEKNIKLEKTION1\SORT.CPP
^E:\C++\CONSOLE\TEKNIKLEKTION1\TEKNIKLEKTION1\SOURCE.CPP
/c /Zi /nologo /W3 /WX- /diagnostics:classic /sdl /O2 /Oi /GL /D _MBCS /Gm- /EHsc /MD /GS /Gy /fp:precise /Zc:wchar_t /Zc:forScope /Zc:inline /Fo"X64\RELEASE\\" /Fd"X64\RELEASE\VC141.PDB" /Gd /TP E:\C++\CONSOLE\TEKNIKLEKTION1\TEKNIKLEKTION1\SOURCE.CPP
^E:\C++\CONSOLE\TEKNIKLEKTION1\TEKNIKLEKTION1\TEST.CPP
/c /Zi /nologo /W3 /WX- /diagnostics:classic /sdl /O2 /Oi /GL /D _MBCS /Gm- /EHsc /MD /GS /Gy /fp:precise /Zc:wchar_t /Zc:forScope /Zc:inline /Fo"X64\RELEASE\\" /Fd"X64\RELEASE\VC141.PDB" /Gd /TP E:\C++\CONSOLE\TEKNIKLEKTION1\TEKNIKLEKTION1\TEST.CPP
^E:\C++\CONSOLE\TEKNIKLEKTION1\TEKNIKLEKTION1\TIME.CPP
/c /Zi /nologo /W3 /WX- /diagnostics:classic /sdl /O2 /Oi /GL /D _MBCS /Gm- /EHsc /MD /GS /Gy /fp:precise /Zc:wchar_t /Zc:forScope /Zc:inline /Fo"X64\RELEASE\\" /Fd"X64\RELEASE\VC141.PDB" /Gd /TP E:\C++\CONSOLE\TEKNIKLEKTION1\TEKNIKLEKTION1\TIME.CPP
^E:\C++\CONSOLE\TEKNIKLEKTION1\TEKNIKLEKTION1\XORSHIFT.CPP
/c /Zi /nologo /W3 /WX- /diagnostics:classic /sdl /O2 /Oi /GL /D _MBCS /Gm- /EHsc /MD /GS /Gy /fp:precise /Zc:wchar_t /Zc:forScope /Zc:inline /Fo"X64\RELEASE\\" /Fd"X64\RELEASE\VC141.PDB" /Gd /TP E:\C++\CONSOLE\TEKNIKLEKTION1\TEKNIKLEKTION1\XORSHIFT.CPP
^C:\DEV\C++\CONSOLE\TEKNIKLEKTION1\TEKNIKLEKTION1\TIME.CPP
/c /Zi /nologo /W3 /WX- /diagnostics:classic /sdl /O2 /Oi /GL /D _MBCS /Gm- /EHsc /MD /GS /Gy /fp:precise /Zc:wchar_t /Zc:forScope /Zc:inline /Fo"X64\RELEASE\\" /Fd"X64\RELEASE\VC141.PDB" /Gd /TP C:\DEV\C++\CONSOLE\TEKNIKLEKTION1\TEKNIKLEKTION1\TIME.CPP
^C:\DEV\C++\CONSOLE\TEKNIKLEKTION1\TEKNIKLEKTION1\XORSHIFT.CPP
/c /Zi /nologo /W3 /WX- /diagnostics:classic /sdl /O2 /Oi /GL /D _MBCS /Gm- /EHsc /MD /GS /Gy /fp:precise /Zc:wchar_t /Zc:forScope /Zc:inline /Fo"X64\RELEASE\\" /Fd"X64\RELEASE\VC141.PDB" /Gd /TP C:\DEV\C++\CONSOLE\TEKNIKLEKTION1\TEKNIKLEKTION1\XORSHIFT.CPP
^C:\DEV\C++\CONSOLE\TEKNIKLEKTION1\TEKNIKLEKTION1\SOURCE.CPP
/c /Zi /nologo /W3 /WX- /diagnostics:classic /sdl /O2 /Oi /GL /D _MBCS /Gm- /EHsc /MD /GS /Gy /fp:precise /Zc:wchar_t /Zc:forScope /Zc:inline /Fo"X64\RELEASE\\" /Fd"X64\RELEASE\VC141.PDB" /Gd /TP C:\DEV\C++\CONSOLE\TEKNIKLEKTION1\TEKNIKLEKTION1\SOURCE.CPP
^C:\DEV\C++\CONSOLE\TEKNIKLEKTION1\TEKNIKLEKTION1\TEST.CPP
/c /Zi /nologo /W3 /WX- /diagnostics:classic /sdl /O2 /Oi /GL /D _MBCS /Gm- /EHsc /MD /GS /Gy /fp:precise /Zc:wchar_t /Zc:forScope /Zc:inline /Fo"X64\RELEASE\\" /Fd"X64\RELEASE\VC141.PDB" /Gd /TP C:\DEV\C++\CONSOLE\TEKNIKLEKTION1\TEKNIKLEKTION1\TEST.CPP
^C:\DEV\C++\CONSOLE\TEKNIKLEKTION1\TEKNIKLEKTION1\SORT.CPP
/c /Zi /nologo /W3 /WX- /diagnostics:classic /sdl /O2 /Oi /GL /D _MBCS /Gm- /EHsc /MD /GS /Gy /fp:precise /Zc:wchar_t /Zc:forScope /Zc:inline /Fo"X64\RELEASE\\" /Fd"X64\RELEASE\VC141.PDB" /Gd /TP C:\DEV\C++\CONSOLE\TEKNIKLEKTION1\TEKNIKLEKTION1\SORT.CPP
