^C:\DEV\C++\CONSOLE\TEKNIKLEKTION1\TEKNIKLEKTION1\SOURCE.CPP
C:\DEV\C++\CONSOLE\TEKNIKLEKTION1\TEKNIKLEKTION1\DEBUG\VC141.PDB
C:\DEV\C++\CONSOLE\TEKNIKLEKTION1\TEKNIKLEKTION1\DEBUG\VC141.IDB
C:\DEV\C++\CONSOLE\TEKNIKLEKTION1\TEKNIKLEKTION1\DEBUG\SOURCE.OBJ
^C:\DEV\C++\CONSOLE\TEKNIKLEKTION1\TEKNIKLEKTION1\SOURCE.CPP|C:\DEV\C++\CONSOLE\TEKNIKLEKTION1\TEKNIKLEKTION1\XORSHIFT.CPP
C:\DEV\C++\CONSOLE\TEKNIKLEKTION1\TEKNIKLEKTION1\DEBUG\VC141.PDB
C:\DEV\C++\CONSOLE\TEKNIKLEKTION1\TEKNIKLEKTION1\DEBUG\VC141.IDB
C:\DEV\C++\CONSOLE\TEKNIKLEKTION1\TEKNIKLEKTION1\DEBUG\SOURCE.OBJ
C:\DEV\C++\CONSOLE\TEKNIKLEKTION1\TEKNIKLEKTION1\DEBUG\XORSHIFT.OBJ
^C:\DEV\C++\CONSOLE\TEKNIKLEKTION1\TEKNIKLEKTION1\XORSHIFT.CPP
C:\DEV\C++\CONSOLE\TEKNIKLEKTION1\TEKNIKLEKTION1\DEBUG\VC141.PDB
^C:\DEV\C++\CONSOLE\TEKNIKLEKTION1\TEKNIKLEKTION1\SORT.CPP|C:\DEV\C++\CONSOLE\TEKNIKLEKTION1\TEKNIKLEKTION1\SOURCE.CPP
C:\DEV\C++\CONSOLE\TEKNIKLEKTION1\TEKNIKLEKTION1\DEBUG\VC141.PDB
C:\DEV\C++\CONSOLE\TEKNIKLEKTION1\TEKNIKLEKTION1\DEBUG\VC141.IDB
C:\DEV\C++\CONSOLE\TEKNIKLEKTION1\TEKNIKLEKTION1\DEBUG\SORT.OBJ
C:\DEV\C++\CONSOLE\TEKNIKLEKTION1\TEKNIKLEKTION1\DEBUG\SOURCE.OBJ
^C:\DEV\C++\CONSOLE\TEKNIKLEKTION1\TEKNIKLEKTION1\SORT.CPP
C:\DEV\C++\CONSOLE\TEKNIKLEKTION1\TEKNIKLEKTION1\DEBUG\VC141.PDB
C:\DEV\C++\CONSOLE\TEKNIKLEKTION1\TEKNIKLEKTION1\DEBUG\VC141.IDB
C:\DEV\C++\CONSOLE\TEKNIKLEKTION1\TEKNIKLEKTION1\DEBUG\SORT.OBJ
^C:\DEV\C++\CONSOLE\TEKNIKLEKTION1\TEKNIKLEKTION1\SOURCE.CPP|C:\DEV\C++\CONSOLE\TEKNIKLEKTION1\TEKNIKLEKTION1\TIME.CPP
C:\DEV\C++\CONSOLE\TEKNIKLEKTION1\TEKNIKLEKTION1\DEBUG\VC141.PDB
C:\DEV\C++\CONSOLE\TEKNIKLEKTION1\TEKNIKLEKTION1\DEBUG\VC141.IDB
C:\DEV\C++\CONSOLE\TEKNIKLEKTION1\TEKNIKLEKTION1\DEBUG\SOURCE.OBJ
C:\DEV\C++\CONSOLE\TEKNIKLEKTION1\TEKNIKLEKTION1\DEBUG\TIME.OBJ
^C:\DEV\C++\CONSOLE\TEKNIKLEKTION1\TEKNIKLEKTION1\TIME.CPP
C:\DEV\C++\CONSOLE\TEKNIKLEKTION1\TEKNIKLEKTION1\DEBUG\VC141.PDB
^C:\DEV\C++\CONSOLE\TEKNIKLEKTION1\TEKNIKLEKTION1\SORT.CPP|C:\DEV\C++\CONSOLE\TEKNIKLEKTION1\TEKNIKLEKTION1\SOURCE.CPP|C:\DEV\C++\CONSOLE\TEKNIKLEKTION1\TEKNIKLEKTION1\TEST.CPP|C:\DEV\C++\CONSOLE\TEKNIKLEKTION1\TEKNIKLEKTION1\TIME.CPP
C:\DEV\C++\CONSOLE\TEKNIKLEKTION1\TEKNIKLEKTION1\DEBUG\VC141.PDB
C:\DEV\C++\CONSOLE\TEKNIKLEKTION1\TEKNIKLEKTION1\DEBUG\VC141.IDB
C:\DEV\C++\CONSOLE\TEKNIKLEKTION1\TEKNIKLEKTION1\DEBUG\SORT.OBJ
C:\DEV\C++\CONSOLE\TEKNIKLEKTION1\TEKNIKLEKTION1\DEBUG\SOURCE.OBJ
C:\DEV\C++\CONSOLE\TEKNIKLEKTION1\TEKNIKLEKTION1\DEBUG\TEST.OBJ
C:\DEV\C++\CONSOLE\TEKNIKLEKTION1\TEKNIKLEKTION1\DEBUG\TIME.OBJ
^C:\DEV\C++\CONSOLE\TEKNIKLEKTION1\TEKNIKLEKTION1\TEST.CPP
C:\DEV\C++\CONSOLE\TEKNIKLEKTION1\TEKNIKLEKTION1\DEBUG\VC141.PDB
C:\DEV\C++\CONSOLE\TEKNIKLEKTION1\TEKNIKLEKTION1\DEBUG\VC141.IDB
C:\DEV\C++\CONSOLE\TEKNIKLEKTION1\TEKNIKLEKTION1\DEBUG\TEST.OBJ
^C:\DEV\C++\CONSOLE\TEKNIKLEKTION1\TEKNIKLEKTION1\SORT.CPP|C:\DEV\C++\CONSOLE\TEKNIKLEKTION1\TEKNIKLEKTION1\SOURCE.CPP|C:\DEV\C++\CONSOLE\TEKNIKLEKTION1\TEKNIKLEKTION1\TEST.CPP
C:\DEV\C++\CONSOLE\TEKNIKLEKTION1\TEKNIKLEKTION1\DEBUG\VC141.PDB
C:\DEV\C++\CONSOLE\TEKNIKLEKTION1\TEKNIKLEKTION1\DEBUG\VC141.IDB
C:\DEV\C++\CONSOLE\TEKNIKLEKTION1\TEKNIKLEKTION1\DEBUG\SORT.OBJ
C:\DEV\C++\CONSOLE\TEKNIKLEKTION1\TEKNIKLEKTION1\DEBUG\SOURCE.OBJ
^C:\DEV\C++\CONSOLE\TEKNIKLEKTION1\TEKNIKLEKTION1\SOURCE.CPP|C:\DEV\C++\CONSOLE\TEKNIKLEKTION1\TEKNIKLEKTION1\TEST.CPP
C:\DEV\C++\CONSOLE\TEKNIKLEKTION1\TEKNIKLEKTION1\DEBUG\VC141.PDB
C:\DEV\C++\CONSOLE\TEKNIKLEKTION1\TEKNIKLEKTION1\DEBUG\VC141.IDB
C:\DEV\C++\CONSOLE\TEKNIKLEKTION1\TEKNIKLEKTION1\DEBUG\SOURCE.OBJ
C:\DEV\C++\CONSOLE\TEKNIKLEKTION1\TEKNIKLEKTION1\DEBUG\TEST.OBJ
