^C:\DEV\C++\CONSOLE\TEKNIKLEKTION1\TEKNIKLEKTION1\DEBUG\SOURCE.OBJ
/OUT:"C:\DEV\C++\CONSOLE\TEKNIKLEKTION1\DEBUG\TEKNIKLEKTION1.EXE" /INCREMENTAL /NOLOGO KERNEL32.LIB USER32.LIB GDI32.LIB WINSPOOL.LIB COMDLG32.LIB ADVAPI32.LIB SHELL32.LIB OLE32.LIB OLEAUT32.LIB UUID.LIB ODBC32.LIB ODBCCP32.LIB /MANIFEST /MANIFESTUAC:"level='asInvoker' uiAccess='false'" /manifest:embed /DEBUG:FASTLINK /PDB:"C:\DEV\C++\CONSOLE\TEKNIKLEKTION1\DEBUG\TEKNIKLEKTION1.PDB" /TLBID:1 /DYNAMICBASE /NXCOMPAT /IMPLIB:"C:\DEV\C++\CONSOLE\TEKNIKLEKTION1\DEBUG\TEKNIKLEKTION1.LIB" /MACHINE:X86 DEBUG\SOURCE.OBJ
^C:\DEV\C++\CONSOLE\TEKNIKLEKTION1\TEKNIKLEKTION1\DEBUG\SORT.OBJ|C:\DEV\C++\CONSOLE\TEKNIKLEKTION1\TEKNIKLEKTION1\DEBUG\SOURCE.OBJ|C:\DEV\C++\CONSOLE\TEKNIKLEKTION1\TEKNIKLEKTION1\DEBUG\TEST.OBJ|C:\DEV\C++\CONSOLE\TEKNIKLEKTION1\TEKNIKLEKTION1\DEBUG\TIME.OBJ|C:\DEV\C++\CONSOLE\TEKNIKLEKTION1\TEKNIKLEKTION1\DEBUG\XORSHIFT.OBJ
/OUT:"C:\DEV\C++\CONSOLE\TEKNIKLEKTION1\DEBUG\TEKNIKLEKTION1.EXE" /INCREMENTAL /NOLOGO KERNEL32.LIB USER32.LIB GDI32.LIB WINSPOOL.LIB COMDLG32.LIB ADVAPI32.LIB SHELL32.LIB OLE32.LIB OLEAUT32.LIB UUID.LIB ODBC32.LIB ODBCCP32.LIB /MANIFEST /MANIFESTUAC:"level='asInvoker' uiAccess='false'" /manifest:embed /DEBUG:FASTLINK /PDB:"C:\DEV\C++\CONSOLE\TEKNIKLEKTION1\DEBUG\TEKNIKLEKTION1.PDB" /TLBID:1 /DYNAMICBASE /NXCOMPAT /IMPLIB:"C:\DEV\C++\CONSOLE\TEKNIKLEKTION1\DEBUG\TEKNIKLEKTION1.LIB" /MACHINE:X86 DEBUG\SORT.OBJDEBUG\SOURCE.OBJDEBUG\TEST.OBJDEBUG\TIME.OBJDEBUG\XORSHIFT.OBJ
