^E:\C++\CONSOLE\TEKNIKLEKTION1\TEKNIKLEKTION1\X64\DEBUG\SORT.OBJ|E:\C++\CONSOLE\TEKNIKLEKTION1\TEKNIKLEKTION1\X64\DEBUG\SOURCE.OBJ|E:\C++\CONSOLE\TEKNIKLEKTION1\TEKNIKLEKTION1\X64\DEBUG\TEST.OBJ|E:\C++\CONSOLE\TEKNIKLEKTION1\TEKNIKLEKTION1\X64\DEBUG\TIME.OBJ|E:\C++\CONSOLE\TEKNIKLEKTION1\TEKNIKLEKTION1\X64\DEBUG\XORSHIFT.OBJ
E:\C++\CONSOLE\TEKNIKLEKTION1\X64\DEBUG\TEKNIKLEKTION1.EXE
E:\C++\CONSOLE\TEKNIKLEKTION1\X64\DEBUG\TEKNIKLEKTION1.ILK
E:\C++\CONSOLE\TEKNIKLEKTION1\X64\DEBUG\TEKNIKLEKTION1.PDB
