^C:\DEV\C++\CONSOLE\TEKNIKLEKTION1\TEKNIKLEKTION1\SORT.CPP|C:\DEV\C++\CONSOLE\TEKNIKLEKTION1\TEKNIKLEKTION1\SOURCE.CPP|C:\DEV\C++\CONSOLE\TEKNIKLEKTION1\TEKNIKLEKTION1\TEST.CPP|C:\DEV\C++\CONSOLE\TEKNIKLEKTION1\TEKNIKLEKTION1\TIME.CPP|C:\DEV\C++\CONSOLE\TEKNIKLEKTION1\TEKNIKLEKTION1\XORSHIFT.CPP
C:\DEV\C++\CONSOLE\TEKNIKLEKTION1\TEKNIKLEKTION1\RELEASE\VC141.PDB
C:\DEV\C++\CONSOLE\TEKNIKLEKTION1\TEKNIKLEKTION1\RELEASE\XORSHIFT.OBJ
C:\DEV\C++\CONSOLE\TEKNIKLEKTION1\TEKNIKLEKTION1\RELEASE\TIME.OBJ
C:\DEV\C++\CONSOLE\TEKNIKLEKTION1\TEKNIKLEKTION1\RELEASE\TEST.OBJ
C:\DEV\C++\CONSOLE\TEKNIKLEKTION1\TEKNIKLEKTION1\RELEASE\SOURCE.OBJ
C:\DEV\C++\CONSOLE\TEKNIKLEKTION1\TEKNIKLEKTION1\RELEASE\SORT.OBJ
^C:\DEV\C++\CONSOLE\TEKNIKLEKTION1\TEKNIKLEKTION1\TIME.CPP
C:\DEV\C++\CONSOLE\TEKNIKLEKTION1\TEKNIKLEKTION1\RELEASE\VC141.PDB
^C:\DEV\C++\CONSOLE\TEKNIKLEKTION1\TEKNIKLEKTION1\XORSHIFT.CPP
C:\DEV\C++\CONSOLE\TEKNIKLEKTION1\TEKNIKLEKTION1\RELEASE\VC141.PDB
^C:\DEV\C++\CONSOLE\TEKNIKLEKTION1\TEKNIKLEKTION1\SORT.CPP|C:\DEV\C++\CONSOLE\TEKNIKLEKTION1\TEKNIKLEKTION1\SOURCE.CPP|C:\DEV\C++\CONSOLE\TEKNIKLEKTION1\TEKNIKLEKTION1\TEST.CPP
C:\DEV\C++\CONSOLE\TEKNIKLEKTION1\TEKNIKLEKTION1\RELEASE\VC141.PDB
C:\DEV\C++\CONSOLE\TEKNIKLEKTION1\TEKNIKLEKTION1\RELEASE\TEST.OBJ
C:\DEV\C++\CONSOLE\TEKNIKLEKTION1\TEKNIKLEKTION1\RELEASE\SOURCE.OBJ
C:\DEV\C++\CONSOLE\TEKNIKLEKTION1\TEKNIKLEKTION1\RELEASE\SORT.OBJ
^C:\DEV\C++\CONSOLE\TEKNIKLEKTION1\TEKNIKLEKTION1\TEST.CPP
C:\DEV\C++\CONSOLE\TEKNIKLEKTION1\TEKNIKLEKTION1\RELEASE\VC141.PDB
^C:\DEV\C++\CONSOLE\TEKNIKLEKTION1\TEKNIKLEKTION1\SOURCE.CPP
C:\DEV\C++\CONSOLE\TEKNIKLEKTION1\TEKNIKLEKTION1\RELEASE\VC141.PDB
C:\DEV\C++\CONSOLE\TEKNIKLEKTION1\TEKNIKLEKTION1\RELEASE\SOURCE.OBJ
^C:\DEV\C++\CONSOLE\TEKNIKLEKTION1\TEKNIKLEKTION1\SORT.CPP
C:\DEV\C++\CONSOLE\TEKNIKLEKTION1\TEKNIKLEKTION1\RELEASE\VC141.PDB
C:\DEV\C++\CONSOLE\TEKNIKLEKTION1\TEKNIKLEKTION1\RELEASE\SORT.OBJ
